<svg xmlns="http://www.w3.org/2000/svg" xmlns:xlink="http://www.w3.org/1999/xlink" id="terminal" baseProfile="full" viewBox="0 0 1128 376" width="1128" version="1.1">
    <defs>
        <termtosvg:template_settings xmlns:termtosvg="https://github.com/nbedos/termtosvg">
            <termtosvg:screen_geometry columns="141" rows="22"/>
            <termtosvg:animation type="css"/>
        </termtosvg:template_settings>
        <style type="text/css" id="generated-style"><![CDATA[#screen {
                font-family: 'DejaVu Sans Mono', monospace;
                font-style: normal;
                font-size: 14px;
            }

        text {
            dominant-baseline: text-before-edge;
            white-space: pre;
        }
    ]]></style>
        <style type="text/css" id="user-style">
            /* The colors defined below are the default 16 colors used for rendering text of the terminal. Adjust
               them as needed.
               PowerShell colors based on https://en.wikipedia.org/wiki/ANSI_escape_code#Colors */
            .foreground {fill: #cccccc;}
            .background {fill: #0c0c0c;}
            .color0 {fill: #0c0c0c;}
            .color1 {fill: #c50f1f;}
            .color2 {fill: #13a10e;}
            .color3 {fill: #c19c00;}
            .color4 {fill: #0037da;}
            .color5 {fill: #881798;}
            .color6 {fill: #3a96dd;}
            .color7 {fill: #cccccc;}
            .color8 {fill: #767676;}
            .color9 {fill: #e74856;}
            .color10 {fill: #16c60c;}
            .color11 {fill: #f9f1a5;}
            .color12 {fill: #3b78ff;}
            .color13 {fill: #b4009e;}
            .color14 {fill: #61d6d6;}
            .color15 {fill: #f2f2f2;}
        </style>
    </defs>
    <svg id="screen" width="1128" height="374" viewBox="0 0 1128 374" preserveAspectRatio="xMidYMin slice">
    <rect class="background" height="100%" width="100%" x="0" y="0"/><defs><g id="g1"><text x="0" textLength="1128" class="foreground">                                                                                                                                             </text></g><g id="g2"><text x="0" textLength="392" font-weight="bold" class="color10">~/Projects/software-garden/rust-business-modeling</text><text x="392" textLength="32" class="foreground"> on </text><text x="424" textLength="48" class="color5">&#57504; main</text><text x="472" textLength="8" class="color1">!</text><text x="480" textLength="32" class="foreground"> &#8986; </text><text x="512" textLength="64" font-weight="bold" class="color9">17:00:17</text></g><g id="g3"><text x="0" textLength="1128" class="foreground">$ cargo run                                                                                                                                  </text></g><g id="g4"><text x="0" textLength="96" font-weight="bold" class="color10">   Compiling</text><text x="96" textLength="720" class="foreground"> rust-business-modeling v0.1.0 (/home/tad/Projects/software-garden/rust-business-modeling)</text></g><g id="g5"><text x="0" textLength="96" font-weight="bold" class="color9">error[E0004]</text><text x="96" textLength="896" font-weight="bold" class="foreground">: non-exhaustive patterns: `(&amp;Date { .. }, &amp;DateTime { .. })` and `(&amp;DateTime { .. }, &amp;Date { .. })` not covered</text><text x="992" textLength="136" class="foreground">                 </text></g><g id="g6"><text x="0" textLength="16" class="foreground">  </text><text x="16" textLength="32" font-weight="bold" class="color12">--&gt; </text><text x="48" textLength="136" class="foreground">src/main.rs:87:15</text></g><g id="g7"><text x="0" textLength="24" class="foreground">   </text><text x="24" textLength="8" font-weight="bold" class="color12">|</text></g><g id="g8"><text x="0" textLength="16" font-weight="bold" class="color12">87</text><text x="16" textLength="8" class="foreground"> </text><text x="24" textLength="16" font-weight="bold" class="color12">| </text><text x="40" textLength="320" class="foreground">        match (&amp;self.start, &amp;self.end) {</text></g><g id="g9"><text x="0" textLength="24" class="foreground">   </text><text x="24" textLength="16" font-weight="bold" class="color12">| </text><text x="40" textLength="112" class="foreground">              </text><text x="152" textLength="192" font-weight="bold" class="color9">^^^^^^^^^^^^^^^^^^^^^^^^</text><text x="344" textLength="8" class="foreground"> </text><text x="352" textLength="752" font-weight="bold" class="color9">patterns `(&amp;Date { .. }, &amp;DateTime { .. })` and `(&amp;DateTime { .. }, &amp;Date { .. })` not covered</text></g><g id="g10"><text x="0" textLength="24" class="foreground">   </text><text x="24" textLength="16" font-weight="bold" class="color12">= </text><text x="40" textLength="32" font-weight="bold" class="foreground">help</text><text x="72" textLength="792" class="foreground">: ensure that all possible cases are being handled, possibly by adding wildcards or more match arms</text></g><g id="g11"><text x="0" textLength="24" class="foreground">   </text><text x="24" textLength="16" font-weight="bold" class="color12">= </text><text x="40" textLength="32" font-weight="bold" class="foreground">note</text><text x="72" textLength="376" class="foreground">: the matched value is of type `(&amp;Time, &amp;Time)`</text></g><g id="g12"><text x="0" textLength="536" font-weight="bold" class="foreground">For more information about this error, try `rustc --explain E0004`.</text><text x="536" textLength="592" class="foreground">                                                                          </text></g><g id="g13"><text x="0" textLength="40" font-weight="bold" class="color9">error</text><text x="40" textLength="8" font-weight="bold" class="foreground">:</text><text x="48" textLength="1080" class="foreground"> could not compile `rust-business-modeling` due to previous error                                                                      </text></g><g id="g14"><text x="0" textLength="392" font-weight="bold" class="color10">~/Projects/software-garden/rust-business-modeling</text><text x="392" textLength="32" class="foreground"> on </text><text x="424" textLength="48" class="color5">&#57504; main</text><text x="472" textLength="8" class="color1">!</text><text x="480" textLength="32" class="foreground"> &#8986; </text><text x="512" textLength="64" font-weight="bold" class="color9">17:00:18</text></g><g id="g15"><text x="0" textLength="16" class="foreground">$ </text><text x="16" textLength="8" class="background"> </text><text x="24" textLength="1104" class="foreground">                                                                                                                                          </text></g></defs><g><use xlink:href="#g1" y="0"/><use xlink:href="#g2" y="17"/><use xlink:href="#g3" y="34"/><use xlink:href="#g4" y="51"/><use xlink:href="#g5" y="68"/><use xlink:href="#g6" y="85"/><use xlink:href="#g7" y="102"/><use xlink:href="#g8" y="119"/><use xlink:href="#g9" y="136"/><use xlink:href="#g7" y="153"/><use xlink:href="#g10" y="170"/><use xlink:href="#g11" y="187"/><use xlink:href="#g12" y="221"/><use xlink:href="#g13" y="238"/><use xlink:href="#g1" y="255"/><use xlink:href="#g14" y="272"/><rect x="16" y="289" width="8" height="17" class="foreground"/><use xlink:href="#g15" y="289"/></g></svg>
</svg>
